#FIG 3.2  Produced by xfig version 3.2.5
Portrait
Center
Metric
A4      
100.00
Single
-2
1200 2
6 585 135 11340 5490
6 7740 3510 9585 4230
2 3 0 1 0 7 50 -1 -1 0.000 0 0 -1 0 0 5
	 8010 3510 9225 3510 9585 4230 7740 4230 8010 3510
4 0 0 50 -1 0 16 0.0000 4 180 465 8415 3960 SeD\001
-6
6 4950 135 6210 1305
2 3 0 1 0 7 50 -1 -1 0.000 0 0 0 0 0 7
	 5895 1260 6205 717 5890 177 5265 180 4955 723 5270 1263
	 5895 1260
-6
1 2 0 1 0 7 50 -1 -1 0.000 1 0.0000 1395 2340 810 315 585 2025 2205 2655
2 4 0 1 0 7 50 -1 -1 0.000 0 0 7 0 0 5
	 7110 4635 7110 4320 5355 4320 5355 4635 7110 4635
2 1 0 2 0 7 50 -1 -1 0.000 0 0 -1 1 0 2
	0 0 2.00 60.00 120.00
	 7380 3375 6210 990
2 1 0 2 0 7 50 -1 -1 0.000 0 0 -1 1 0 2
	0 0 2.00 60.00 120.00
	 2160 2115 4860 810
2 1 0 2 0 7 50 -1 -1 0.000 0 0 -1 1 0 2
	0 0 2.00 60.00 120.00
	 2160 2565 5040 3690
2 2 0 1 0 7 50 -1 -1 0.000 0 0 -1 0 0 5
	 5355 4725 5580 4725 5580 4950 5355 4950 5355 4725
2 2 0 1 0 7 50 -1 -1 0.000 0 0 -1 0 0 5
	 5625 4725 5850 4725 5850 4950 5625 4950 5625 4725
2 2 0 1 0 7 50 -1 -1 0.000 0 0 -1 0 0 5
	 5895 4725 6120 4725 6120 4950 5895 4950 5895 4725
2 2 0 1 0 7 50 -1 -1 0.000 0 0 -1 0 0 5
	 6165 4725 6390 4725 6390 4950 6165 4950 6165 4725
2 2 0 1 0 7 50 -1 -1 0.000 0 0 -1 0 0 5
	 6435 4725 6660 4725 6660 4950 6435 4950 6435 4725
2 2 0 1 0 7 50 -1 -1 0.000 0 0 -1 0 0 5
	 6705 4725 6930 4725 6930 4950 6705 4950 6705 4725
2 2 0 1 0 7 50 -1 -1 0.000 0 0 -1 0 0 5
	 6975 4725 7200 4725 7200 4950 6975 4950 6975 4725
2 2 0 1 0 7 50 -1 -1 0.000 0 0 -1 0 0 5
	 5355 4995 5580 4995 5580 5220 5355 5220 5355 4995
2 2 0 1 0 7 50 -1 -1 0.000 0 0 -1 0 0 5
	 5625 4995 5850 4995 5850 5220 5625 5220 5625 4995
2 2 0 1 0 7 50 -1 -1 0.000 0 0 -1 0 0 5
	 5895 4995 6120 4995 6120 5220 5895 5220 5895 4995
2 2 0 1 0 7 50 -1 -1 0.000 0 0 -1 0 0 5
	 6165 4995 6390 4995 6390 5220 6165 5220 6165 4995
2 2 0 1 0 7 50 -1 -1 0.000 0 0 -1 0 0 5
	 6435 4995 6660 4995 6660 5220 6435 5220 6435 4995
2 2 0 1 0 7 50 -1 -1 0.000 0 0 -1 0 0 5
	 6705 4995 6930 4995 6930 5220 6705 5220 6705 4995
2 2 0 1 0 7 50 -1 -1 0.000 0 0 -1 0 0 5
	 6975 4995 7200 4995 7200 5220 6975 5220 6975 4995
2 2 0 1 0 7 50 -1 -1 0.000 0 0 -1 0 0 5
	 6975 5265 7200 5265 7200 5490 6975 5490 6975 5265
2 2 0 1 0 7 50 -1 -1 0.000 0 0 -1 0 0 5
	 6705 5265 6930 5265 6930 5490 6705 5490 6705 5265
2 2 0 1 0 7 50 -1 -1 0.000 0 0 -1 0 0 5
	 6435 5265 6660 5265 6660 5490 6435 5490 6435 5265
2 2 0 1 0 7 50 -1 -1 0.000 0 0 -1 0 0 5
	 8505 4275 8730 4275 8730 4500 8505 4500 8505 4275
2 3 0 1 0 7 50 -1 -1 0.000 0 0 -1 0 0 5
	 5580 3510 6795 3510 7155 4230 5310 4230 5580 3510
4 0 0 50 -1 0 16 0.0000 4 240 570 5940 4590 Elagi\001
4 0 0 50 -1 0 16 0.0000 4 180 1740 3375 4905 batch/non-batch\001
4 0 0 50 -1 0 16 0.0000 4 180 660 1035 2430 Client\001
4 0 0 50 -1 0 16 0.0000 4 240 1830 6930 1890 corba_pb_desc_t\001
4 0 0 50 -1 0 16 0.0000 4 240 1665 2475 1035 corba_profile_t\001
4 0 0 50 -1 0 16 0.0000 4 240 1830 2745 3780 corba_pb_desc_t\001
4 0 0 50 -1 0 16 0.0000 4 240 1470 855 1890 diet_profile_t\001
4 0 0 50 -1 0 16 0.0000 4 240 1470 855 2880 diet_profile_t\001
4 0 0 50 -1 0 16 0.0000 4 240 2805 6525 1350 [ SeqCorbaProfileDesc_t]\001
4 0 0 50 -1 0 16 0.0000 4 240 1695 9630 4500 sequential node\001
4 0 0 50 -1 0 16 0.0000 4 180 465 5985 3960 SeD\001
4 0 0 50 -1 0 14 0.0000 4 210 1290 5580 4140 (frontal node)\001
4 0 0 50 -1 0 16 0.0000 4 180 1425 3735 5130 cluster nodes\001
4 0 0 50 -1 0 16 0.0000 4 240 660 5220 765 Agent\001
4 0 0 50 -1 0 16 0.0000 4 240 2100 3060 5355 or parallel machine\001
-6
