#FIG 3.2  Produced by xfig version 3.2.5
Portrait
Center
Metric
Letter  
96.00
Single
-2
1200 2
5 1 0 1 0 7 10 0 -1 0.000 0 0 1 1 3232.601 4497.525 2385 6795 810 4140 3555 2070
	1 1 1.00 60.00 120.00
	1 1 1.00 60.00 120.00
6 5085 4095 5760 5040
2 1 0 1 0 7 70 0 -1 0.000 0 0 -1 1 0 2
	0 0 1.00 57.15 114.30
	 5436 4171 5436 5010
2 1 0 1 0 7 70 0 -1 0.000 0 0 -1 1 0 2
	0 0 1.00 57.15 114.30
	 5398 4152 5112 4895
2 1 0 1 0 7 70 0 -1 0.000 0 0 -1 1 0 2
	0 0 1.00 57.15 114.30
	 5455 4133 5722 4895
-6
6 4365 4725 4995 5670
2 1 0 1 0 7 70 0 -1 0.000 0 0 -1 1 0 2
	0 0 1.00 57.15 114.30
	 4693 4794 4693 5633
2 1 0 1 0 7 70 0 -1 0.000 0 0 -1 1 0 2
	0 0 1.00 57.15 114.30
	 4655 4775 4369 5518
2 1 0 1 0 7 70 0 -1 0.000 0 0 -1 1 0 2
	0 0 1.00 57.15 114.30
	 4712 4756 4979 5518
-6
6 4275 3600 4725 4230
2 1 0 1 0 7 70 0 -1 0.000 0 0 -1 1 0 2
	0 0 1.00 36.45 72.90
	 4506 3652 4506 4187
2 1 0 1 0 7 70 0 -1 0.000 0 0 -1 1 0 2
	0 0 1.00 36.45 72.90
	 4481 3640 4299 4113
2 1 0 1 0 7 70 0 -1 0.000 0 0 -1 1 0 2
	0 0 1.00 36.45 72.90
	 4518 3628 4687 4113
-6
6 3285 3645 3690 4230
2 1 0 1 0 7 70 0 -1 0.000 0 0 -1 1 0 2
	0 0 1.00 36.45 72.90
	 3501 3688 3501 4222
2 1 0 1 0 7 70 0 -1 0.000 0 0 -1 1 0 2
	0 0 1.00 36.45 72.90
	 3476 3675 3294 4149
2 1 0 1 0 7 70 0 -1 0.000 0 0 -1 1 0 2
	0 0 1.00 36.45 72.90
	 3513 3663 3683 4149
-6
6 2205 4230 2790 5040
2 1 0 1 0 7 70 0 -1 0.000 0 0 -1 1 0 2
	0 0 1.00 51.54 103.09
	 2502 4282 2502 5037
2 1 0 1 0 7 70 0 -1 0.000 0 0 -1 1 0 2
	0 0 1.00 51.54 103.09
	 2466 4266 2209 4934
2 1 0 1 0 7 70 0 -1 0.000 0 0 -1 1 0 2
	0 0 1.00 51.54 103.09
	 2518 4248 2759 4934
-6
6 2250 6660 2790 7200
6 2250 6705 2520 7200
1 4 0 1 0 0 60 0 20 0.000 1 0.0000 2336 7142 47 47 2288 7142 2383 7142
2 1 0 1 0 7 70 0 -1 0.000 0 0 -1 0 0 2
	 2503 6708 2352 7100
-6
6 2475 6660 2790 7200
1 4 0 1 0 0 60 0 20 0.000 1 0.0000 2527 7134 47 47 2480 7134 2575 7134
1 4 0 1 0 0 60 0 20 0.000 1 0.0000 2703 7134 47 47 2656 7134 2751 7134
2 1 0 1 0 7 70 0 -1 0.000 0 0 -1 0 0 2
	 2524 6717 2524 7161
2 1 0 1 0 7 70 0 -1 0.000 0 0 -1 0 0 2
	 2534 6697 2676 7100
-6
-6
6 3060 6660 3600 7200
6 3060 6705 3330 7200
1 4 0 1 0 0 60 0 20 0.000 1 0.0000 3146 7142 47 47 3098 7142 3193 7142
2 1 0 1 0 7 70 0 -1 0.000 0 0 -1 0 0 2
	 3313 6708 3162 7100
-6
6 3285 6660 3600 7200
1 4 0 1 0 0 60 0 20 0.000 1 0.0000 3337 7134 47 47 3290 7134 3385 7134
1 4 0 1 0 0 60 0 20 0.000 1 0.0000 3513 7134 47 47 3466 7134 3561 7134
2 1 0 1 0 7 70 0 -1 0.000 0 0 -1 0 0 2
	 3334 6717 3334 7161
2 1 0 1 0 7 70 0 -1 0.000 0 0 -1 0 0 2
	 3344 6697 3486 7100
-6
-6
6 3645 6660 4185 7200
6 3645 6705 3915 7200
1 4 0 1 0 0 60 0 20 0.000 1 0.0000 3731 7142 47 47 3683 7142 3778 7142
2 1 0 1 0 7 70 0 -1 0.000 0 0 -1 0 0 2
	 3898 6708 3747 7100
-6
6 3870 6660 4185 7200
1 4 0 1 0 0 60 0 20 0.000 1 0.0000 3922 7134 47 47 3875 7134 3970 7134
1 4 0 1 0 0 60 0 20 0.000 1 0.0000 4098 7134 47 47 4051 7134 4146 7134
2 1 0 1 0 7 70 0 -1 0.000 0 0 -1 0 0 2
	 3919 6717 3919 7161
2 1 0 1 0 7 70 0 -1 0.000 0 0 -1 0 0 2
	 3929 6697 4071 7100
-6
-6
1 4 0 1 0 7 60 0 20 0.000 1 0.0000 5421 4058 319 319 5102 4058 5740 4058
1 4 0 1 0 7 60 0 20 0.000 1 0.0000 2525 4063 319 319 2206 4063 2844 4063
1 2 0 1 0 7 70 0 -1 0.000 1 0.0000 3967 4154 1448 569 2519 3585 5417 4724
1 4 0 1 0 7 60 0 20 0.000 1 0.0000 3337 6716 142 142 3194 6716 3480 6716
1 4 0 1 0 7 60 0 20 0.000 1 0.0000 3903 6712 142 142 3760 6712 4045 6712
1 4 0 1 0 7 60 0 20 0.000 1 0.0000 2510 6713 142 142 2367 6713 2653 6713
1 1 0 2 0 7 60 0 20 0.000 1 0.0000 4110 2085 540 315 4110 2085 4650 2085
1 4 0 1 0 7 60 0 20 0.000 1 0.0000 4503 3586 295 295 4207 3586 4798 3586
1 4 0 1 0 7 60 0 20 0.000 1 0.0000 3497 3594 295 295 3202 3594 3792 3594
1 4 0 1 0 7 60 0 20 0.000 1 0.0000 3273 4688 342 342 2930 4688 3616 4688
1 4 0 1 0 7 60 0 20 0.000 1 0.0000 4670 4664 342 342 4327 4664 5013 4664
1 4 0 1 0 7 60 0 20 0.000 1 0.0000 3286 5494 238 238 3048 5494 3524 5494
1 4 0 1 0 7 60 0 20 0.000 1 0.0000 3896 6112 238 238 3658 6112 4134 6112
1 4 0 1 0 7 60 0 20 0.000 1 0.0000 2509 6100 238 238 2271 6100 2747 6100
1 4 0 1 0 0 60 0 20 0.000 1 0.0000 4271 7148 47 47 4224 7148 4319 7148
1 4 0 1 0 0 60 0 20 0.000 1 0.0000 4463 7139 47 47 4415 7139 4510 7139
1 4 0 1 0 0 60 0 20 0.000 1 0.0000 4639 7139 47 47 4591 7139 4686 7139
1 4 0 1 0 7 60 0 20 0.000 1 0.0000 4446 6718 142 142 4303 6718 4588 6718
2 2 0 1 7 7 100 0 20 0.000 0 0 -1 0 0 5
	 630 1710 6750 1710 6750 7470 630 7470 630 1710
2 1 0 1 0 7 70 0 -1 0.000 0 0 -1 0 0 2
	 2778 4096 5207 4096
2 1 0 1 0 7 70 0 -1 0.000 0 0 -1 0 0 2
	 5186 4098 3563 3668
2 1 0 1 0 7 70 0 -1 0.000 0 0 -1 0 0 2
	 4421 3668 2790 4098
2 1 0 1 0 7 70 0 -1 0.000 0 0 -1 0 0 2
	 3473 3809 3349 4453
2 1 0 1 0 7 70 0 -1 0.000 0 0 -1 0 0 2
	 4543 3762 4635 4453
2 1 0 1 0 7 70 0 -1 0.000 0 0 -1 0 0 2
	 3492 3739 4492 4453
2 1 0 1 0 7 70 0 -1 0.000 0 0 -1 0 0 2
	 4421 3810 3563 4453
2 1 0 1 0 7 70 0 -1 0.000 0 0 -1 0 0 2
	 2778 4096 4421 4525
2 1 0 1 0 7 70 0 -1 0.000 0 0 -1 0 0 2
	 3563 4525 5207 4096
2 1 1 1 0 7 70 0 -1 4.000 0 0 -1 0 0 2
	 3941 2389 3431 3408
2 1 1 1 0 7 70 0 -1 4.000 0 0 -1 0 0 2
	 4083 2389 4662 3492
2 1 1 1 0 7 50 0 -1 4.000 0 0 -1 0 0 2
	 4054 2404 3304 4526
2 1 1 1 0 7 70 0 -1 3.000 0 0 -1 0 0 2
	 4153 2432 5454 3946
2 1 1 1 0 7 50 0 -1 4.000 0 0 -1 0 0 2
	 4054 2474 4564 4483
2 1 0 1 0 7 70 0 -1 0.000 0 0 -1 0 0 2
	 3257 4866 3258 5324
2 1 0 1 0 7 61 0 -1 0.000 0 0 -1 0 0 2
	 2588 6038 3220 5579
2 1 0 1 0 7 61 0 -1 0.000 0 0 -1 0 0 2
	 3841 6038 3258 5503
2 1 0 1 0 7 70 0 -1 0.000 0 0 -1 1 0 2
	0 0 1.00 57.15 114.30
	 3249 4824 2884 5376
2 1 0 1 0 7 70 0 -1 0.000 0 0 -1 1 0 2
	0 0 1.00 57.15 114.30
	 3306 4805 3679 5376
2 1 1 1 0 7 70 0 -1 4.000 0 0 -1 0 0 2
	 3941 2347 2568 3973
2 1 2 1 0 7 70 0 -1 3.000 0 0 -1 1 0 2
	1 0 1.00 57.15 114.30
	 5230 6556 4595 6676
2 1 0 1 0 7 61 0 -1 0.000 0 0 -1 0 0 2
	 3909 6641 3909 6298
2 1 0 1 0 7 61 0 -1 0.000 0 0 -1 0 0 2
	 4000 6254 4406 6641
2 1 0 1 0 7 61 0 -1 0.000 0 0 -1 0 0 2
	 3808 6264 3381 6626
2 1 0 1 0 7 61 0 -1 0.000 0 0 -1 0 1 2
	0 0 1.00 49.52 99.04
	 2200 6602 2470 6236
2 1 0 1 0 7 61 0 -1 0.000 0 0 -1 0 0 2
	 2523 6633 2523 6284
2 1 0 1 0 7 61 0 -1 0.000 0 0 -1 0 1 2
	0 0 1.00 49.52 99.04
	 2810 6576 2619 6249
2 4 0 1 0 7 15 -1 20 0.000 0 0 6 0 0 5
	 7965 7425 7965 6660 6255 6660 6255 7425 7965 7425
2 4 0 1 0 0 55 -1 20 0.000 0 0 6 0 0 5
	 8010 7470 8010 6705 6300 6705 6300 7470 8010 7470
2 1 0 1 0 7 70 0 -1 0.000 0 0 -1 0 0 1
	 4485 4545
2 1 0 1 0 7 70 0 -1 0.000 0 0 -1 0 0 2
	 4460 6723 4460 7167
2 1 0 1 0 7 70 0 -1 0.000 0 0 -1 0 0 2
	 4439 6714 4287 7106
2 1 0 1 0 7 70 0 -1 0.000 0 0 -1 0 0 2
	 4469 6703 4611 7106
2 1 2 1 0 7 70 0 -1 3.000 0 0 -1 1 0 2
	1 0 1.00 57.15 114.30
	 1652 6994 2287 7114
4 0 0 5 -1 0 12 0.0000 4 180 1515 6300 6885 MA: Master Agent\001
4 0 0 5 -1 0 12 0.0000 4 180 1455 6300 7110 LA  : Local Agent\001
4 0 0 5 -1 0 12 0.0000 4 135 1665 6300 7335 SeD: Server Daemon\001
4 0 0 1 0 18 16 0.0000 4 210 750 3761 2141 Client\001
4 0 0 1 0 16 15 0.0000 4 195 375 3325 3679 MA\001
4 0 0 1 0 16 15 0.0000 4 195 375 4331 3671 MA\001
4 0 0 1 0 16 16 0.0000 4 195 405 5249 4144 MA\001
4 0 0 1 0 16 16 0.0000 4 195 330 3143 5579 LA\001
4 0 0 1 0 16 16 0.0000 4 195 525 5239 6630 SeD\001
4 0 0 1 0 16 17 0.0000 4 210 435 4499 4750 MA\001
4 0 0 1 0 16 17 0.0000 4 210 435 3097 4773 MA\001
4 0 0 1 0 16 16 0.0000 4 195 405 2354 4149 MA\001
4 0 0 1 0 16 16 0.0000 4 195 330 2366 6186 LA\001
4 0 0 1 0 16 16 0.0000 4 195 330 3753 6197 LA\001
4 0 0 1 0 16 16 0.0000 4 195 900 765 7065 Service\001
